test.vcd
$date
	Sat Oct 19 10:09:51 2019
$end
$version
	Icarus Verilog
$end
$timescale
	1s
$end
$scope module bowling_tb $end
$var wire 9 ! dut_score [8:0] $end
$var reg 1 " calculate_score $end
$var reg 1 # clock $end
$var reg 4 $ pin_count [3:0] $end
$var reg 1 % reset $end
$var reg 1 & roll $end
$scope module dut $end
$var wire 1 " calculate_score $end
$var wire 1 # clock $end
$var wire 4 ' pin_count [3:0] $end
$var wire 1 % reset $end
$var wire 1 & roll $end
$var reg 5 ( idx [4:0] $end
$var reg 5 ) roll_index [4:0] $end
$var reg 9 * score [8:0] $end
$upscope $end
$scope task dut_reset $end
$upscope $end
$scope task get_score $end
$var integer 32 + x [31:0] $end
$upscope $end
$scope task roll_many $end
$var reg 4 , num_pins [3:0] $end
$var reg 5 - throws [4:0] $end
$var integer 32 . x [31:0] $end
$upscope $end
$scope task roll_once $end
$var reg 4 / num_pins [3:0] $end
$upscope $end
$scope task test_perfect_game $end
$upscope $end
$scope task test_score_single_spare $end
$upscope $end
$scope task test_score_single_strike $end
$upscope $end
$scope task test_score_single_throw $end
$upscope $end
$upscope $end
$enddefinitions $end
#0
$dumpvars
bx /
bx .
bx -
bx ,
bx +
bx *
bx )
bx (
b0 '
0&
0%
b0 $
0#
0"
bx !
$end
#50
1#
#100
1%
0#
#150
b0 (
b0 )
b0 !
b0 *
1#
#200
b1000 $
b1000 '
b1000 /
0%
0#
#250
1#
#300
1&
0#
#350
b1 )
1#
#400
b0 /
b0 .
b0 ,
b10011 -
0&
b0 $
b0 '
0#
#450
1#
#500
1&
0#
#550
b10 )
1#
#600
b1 .
0&
0#
#650
1#
#700
1&
0#
#750
b11 )
1#
#800
b10 .
0&
0#
#850
1#
#900
1&
0#
#950
b100 )
1#
#1000
b11 .
0&
0#
#1050
1#
#1100
1&
0#
#1150
b101 )
1#
#1200
b100 .
0&
0#
#1250
1#
#1300
1&
0#
#1350
b110 )
1#
#1400
b101 .
0&
0#
#1450
1#
#1500
1&
0#
#1550
b111 )
1#
#1600
b110 .
0&
0#
#1650
1#
#1700
1&
0#
#1750
b1000 )
1#
#1800
b111 .
0&
0#
#1850
1#
#1900
1&
0#
#1950
b1001 )
1#
#2000
b1000 .
0&
0#
#2050
1#
#2100
1&
0#
#2150
b1010 )
1#
#2200
b1001 .
0&
0#
#2250
1#
#2300
1&
0#
#2350
b1011 )
1#
#2400
b1010 .
0&
0#
#2450
1#
#2500
1&
0#
#2550
b1100 )
1#
#2600
b1011 .
0&
0#
#2650
1#
#2700
1&
0#
#2750
b1101 )
1#
#2800
b1100 .
0&
0#
#2850
1#
#2900
1&
0#
#2950
b1110 )
1#
#3000
b1101 .
0&
0#
#3050
1#
#3100
1&
0#
#3150
b1111 )
1#
#3200
b1110 .
0&
0#
#3250
1#
#3300
1&
0#
#3350
b10000 )
1#
#3400
b1111 .
0&
0#
#3450
1#
#3500
1&
0#
#3550
b10001 )
1#
#3600
b10000 .
0&
0#
#3650
1#
#3700
1&
0#
#3750
b10010 )
1#
#3800
b10001 .
0&
0#
#3850
1#
#3900
1&
0#
#3950
b10011 )
1#
#4000
b10010 .
0&
0#
#4050
1#
#4100
1&
0#
#4150
b10100 )
1#
#4200
b0 +
1"
b10011 .
0&
0#
#4250
b10 (
b1000 !
b1000 *
1#
#4300
b1 +
0#
#4350
b100 (
1#
#4400
b10 +
0#
#4450
b110 (
1#
#4500
b11 +
0#
#4550
b1000 (
1#
#4600
b100 +
0#
#4650
b1010 (
1#
#4700
b101 +
0#
#4750
b1100 (
1#
#4800
b110 +
0#
#4850
b1110 (
1#
#4900
b111 +
0#
#4950
b10000 (
1#
#5000
b1000 +
0#
#5050
b10010 (
1#
#5100
b1001 +
0#
#5150
b10100 (
1#
#5200
0"
b1010 +
0#
#5250
1#
#5300
1%
0#
#5350
b0 (
b0 )
b0 !
b0 *
1#
#5400
b101 $
b101 '
b101 /
0%
0#
#5450
1#
#5500
1&
0#
#5550
b1 )
1#
#5600
0&
b101 $
b101 '
0#
#5650
1#
#5700
1&
0#
#5750
b10 )
1#
#5800
0&
b101 $
b101 '
0#
#5850
1#
#5900
1&
0#
#5950
b11 )
1#
#6000
b0 /
b0 .
b10001 -
0&
b0 $
b0 '
0#
#6050
1#
#6100
1&
0#
#6150
b100 )
1#
#6200
b1 .
0&
0#
#6250
1#
#6300
1&
0#
#6350
b101 )
1#
#6400
b10 .
0&
0#
#6450
1#
#6500
1&
0#
#6550
b110 )
1#
#6600
b11 .
0&
0#
#6650
1#
#6700
1&
0#
#6750
b111 )
1#
#6800
b100 .
0&
0#
#6850
1#
#6900
1&
0#
#6950
b1000 )
1#
#7000
b101 .
0&
0#
#7050
1#
#7100
1&
0#
#7150
b1001 )
1#
#7200
b110 .
0&
0#
#7250
1#
#7300
1&
0#
#7350
b1010 )
1#
#7400
b111 .
0&
0#
#7450
1#
#7500
1&
0#
#7550
b1011 )
1#
#7600
b1000 .
0&
0#
#7650
1#
#7700
1&
0#
#7750
b1100 )
1#
#7800
b1001 .
0&
0#
#7850
1#
#7900
1&
0#
#7950
b1101 )
1#
#8000
b1010 .
0&
0#
#8050
1#
#8100
1&
0#
#8150
b1110 )
1#
#8200
b1011 .
0&
0#
#8250
1#
#8300
1&
0#
#8350
b1111 )
1#
#8400
b1100 .
0&
0#
#8450
1#
#8500
1&
0#
#8550
b10000 )
1#
#8600
b1101 .
0&
0#
#8650
1#
#8700
1&
0#
#8750
b10001 )
1#
#8800
b1110 .
0&
0#
#8850
1#
#8900
1&
0#
#8950
b10010 )
1#
#9000
b1111 .
0&
0#
#9050
1#
#9100
1&
0#
#9150
b10011 )
1#
#9200
b10000 .
0&
0#
#9250
1#
#9300
1&
0#
#9350
b10100 )
1#
#9400
b0 +
1"
b10001 .
0&
0#
#9450
b10 (
b1111 !
b1111 *
1#
#9500
b1 +
0#
#9550
b100 (
b10100 !
b10100 *
1#
#9600
b10 +
0#
#9650
b110 (
1#
#9700
b11 +
0#
#9750
b1000 (
1#
#9800
b100 +
0#
#9850
b1010 (
1#
#9900
b101 +
0#
#9950
b1100 (
1#
#10000
b110 +
0#
#10050
b1110 (
1#
#10100
b111 +
0#
#10150
b10000 (
1#
#10200
b1000 +
0#
#10250
b10010 (
1#
#10300
b1001 +
0#
#10350
b10100 (
1#
#10400
0"
b1010 +
0#
#10450
1#
#10500
1%
0#
#10550
b0 (
b0 )
b0 !
b0 *
1#
#10600
b1010 $
b1010 '
b1010 /
0%
0#
#10650
1#
#10700
1&
0#
#10750
b1 )
1#
#10800
b11 /
0&
b11 $
b11 '
0#
#10850
1#
#10900
1&
0#
#10950
b10 )
1#
#11000
b100 /
0&
b100 $
b100 '
0#
#11050
1#
#11100
1&
0#
#11150
b11 )
1#
#11200
b0 /
b0 .
b10000 -
0&
b0 $
b0 '
0#
#11250
1#
#11300
1&
0#
#11350
b100 )
1#
#11400
b1 .
0&
0#
#11450
1#
#11500
1&
0#
#11550
b101 )
1#
#11600
b10 .
0&
0#
#11650
1#
#11700
1&
0#
#11750
b110 )
1#
#11800
b11 .
0&
0#
#11850
1#
#11900
1&
0#
#11950
b111 )
1#
#12000
b100 .
0&
0#
#12050
1#
#12100
1&
0#
#12150
b1000 )
1#
#12200
b101 .
0&
0#
#12250
1#
#12300
1&
0#
#12350
b1001 )
1#
#12400
b110 .
0&
0#
#12450
1#
#12500
1&
0#
#12550
b1010 )
1#
#12600
b111 .
0&
0#
#12650
1#
#12700
1&
0#
#12750
b1011 )
1#
#12800
b1000 .
0&
0#
#12850
1#
#12900
1&
0#
#12950
b1100 )
1#
#13000
b1001 .
0&
0#
#13050
1#
#13100
1&
0#
#13150
b1101 )
1#
#13200
b1010 .
0&
0#
#13250
1#
#13300
1&
0#
#13350
b1110 )
1#
#13400
b1011 .
0&
0#
#13450
1#
#13500
1&
0#
#13550
b1111 )
1#
#13600
b1100 .
0&
0#
#13650
1#
#13700
1&
0#
#13750
b10000 )
1#
#13800
b1101 .
0&
0#
#13850
1#
#13900
1&
0#
#13950
b10001 )
1#
#14000
b1110 .
0&
0#
#14050
1#
#14100
1&
0#
#14150
b10010 )
1#
#14200
b1111 .
0&
0#
#14250
1#
#14300
1&
0#
#14350
b10011 )
1#
#14400
b0 +
1"
b10000 .
0&
0#
#14450
b1 (
b10001 !
b10001 *
1#
#14500
b1 +
0#
#14550
b11 (
b11000 !
b11000 *
1#
#14600
b10 +
0#
#14650
b101 (
1#
#14700
b11 +
0#
#14750
b111 (
1#
#14800
b100 +
0#
#14850
b1001 (
1#
#14900
b101 +
0#
#14950
b1011 (
1#
#15000
b110 +
0#
#15050
b1101 (
1#
#15100
b111 +
0#
#15150
b1111 (
1#
#15200
b1000 +
0#
#15250
b10001 (
1#
#15300
b1001 +
0#
#15350
b10011 (
1#
#15400
0"
b1010 +
0#
#15450
1#
#15500
1%
0#
#15550
b0 (
b0 )
b0 !
b0 *
1#
#15600
b1010 $
b1010 '
b1010 /
b0 .
b1010 ,
b1100 -
0%
0#
#15650
1#
#15700
1&
0#
#15750
b1 )
1#
#15800
b1 .
0&
b1010 $
b1010 '
0#
#15850
1#
#15900
1&
0#
#15950
b10 )
1#
#16000
b10 .
0&
b1010 $
b1010 '
0#
#16050
1#
#16100
1&
0#
#16150
b11 )
1#
#16200
b11 .
0&
b1010 $
b1010 '
0#
#16250
1#
#16300
1&
0#
#16350
b100 )
1#
#16400
b100 .
0&
b1010 $
b1010 '
0#
#16450
1#
#16500
1&
0#
#16550
b101 )
1#
#16600
b101 .
0&
b1010 $
b1010 '
0#
#16650
1#
#16700
1&
0#
#16750
b110 )
1#
#16800
b110 .
0&
b1010 $
b1010 '
0#
#16850
1#
#16900
1&
0#
#16950
b111 )
1#
#17000
b111 .
0&
b1010 $
b1010 '
0#
#17050
1#
#17100
1&
0#
#17150
b1000 )
1#
#17200
b1000 .
0&
b1010 $
b1010 '
0#
#17250
1#
#17300
1&
0#
#17350
b1001 )
1#
#17400
b1001 .
0&
b1010 $
b1010 '
0#
#17450
1#
#17500
1&
0#
#17550
b1010 )
1#
#17600
b1010 .
0&
b1010 $
b1010 '
0#
#17650
1#
#17700
1&
0#
#17750
b1011 )
1#
#17800
b1011 .
0&
b1010 $
b1010 '
0#
#17850
1#
#17900
1&
0#
#17950
b1100 )
1#
#18000
b0 +
1"
b1100 .
0&
b0 $
b0 '
0#
#18050
b1 (
b11110 !
b11110 *
1#
#18100
b1 +
0#
#18150
b10 (
b111100 !
b111100 *
1#
#18200
b10 +
0#
#18250
b11 (
b1011010 !
b1011010 *
1#
#18300
b11 +
0#
#18350
b100 (
b1111000 !
b1111000 *
1#
#18400
b100 +
0#
#18450
b101 (
b10010110 !
b10010110 *
1#
#18500
b101 +
0#
#18550
b110 (
b10110100 !
b10110100 *
1#
#18600
b110 +
0#
#18650
b111 (
b11010010 !
b11010010 *
1#
#18700
b111 +
0#
#18750
b1000 (
b11110000 !
b11110000 *
1#
#18800
b1000 +
0#
#18850
b1001 (
b100001110 !
b100001110 *
1#
#18900
b1001 +
0#
#18950
b1010 (
b100101100 !
b100101100 *
1#
#19000
0"
b1010 +
0#
